{
  "$schema": "http://json-schema.org/schema#",
  "$id": "http://www.ibm.com/dba/solutions/solution1/RWADP1/ProjectDefinition.json",
  "title": "RWADP1",
  "ba_description": "",
  "ba_type": "content",
  "ba_repoPrimaryKey": "RWADP1",
  "ba_id": "5b85e542-9093-4cf3-bdde-c3e7da5f4a18",
  "ba_expectedDocTypes": 0,
  "ba_dataDefinitions": [
    {
      "$ref": "proj://CDD/DD_c5a3b766-824d-4022-8eeb-bae55ba740c5_Accountnumber.json",
      "title": "Account number"
    },
    {
      "$ref": "proj://CDD/DD_d9ffe6c0-6024-4fe5-9a97-d0cdd74e73bd_Shipper.json",
      "title": "Shipper"
    },
    {
      "$ref": "proj://CDD/DD_506c0dbd-7bed-4b5d-908a-4e14120c1f3c_Invoicenumber.json",
      "title": "Invoice number"
    }
  ],
  "ba_contentDefinitions": [
    {
      "$ref": "CD_UtilityBill.json",
      "title": "Utility Bill",
      "caDocTypeId": "a2827178-33da-403b-aaa8-b0bb3b820959"
    },
    {
      "$ref": "CD_BillOfLading.json",
      "title": "Bill of Lading",
      "caDocTypeId": "63842cbd-c858-4a5d-955c-7825edb7da25"
    },
    {
      "$ref": "CD_Invoice.json",
      "title": "Invoice",
      "caDocTypeId": "b65d6596-71e0-4def-92e4-fc5e04ff4e66"
    }
  ],
  "ba_caDefinitions": "caDefinitions.json",
  "ba_caProjectDescriptor": "264d4ec9-2db0-4917-ac3d-463acdd9966d",
  "ba_snapshotName": "v2-2024-01-12-1812",
  "ba_versionId": "22c3161c-0eb9-4477-9633-d703049797e9",
  "ba_caMLModel": "MLmodel.zip",
  "ba_versionNotes": "",
  "ba_caClassificationModelTrainingId": "4c6beb59-4699-48ba-b32c-7a002c943083",
  "ba_caDataExtractionModelTrainingId": "2be8346e-53fc-498d-834a-c9b258facb0f"
}